TSM - Introducción a Tidyverse
…
¡Incluso permite renombrar variables! (Ver notas de la clase).

Más opciones se pueden revisar escribiendo en la consola de R ?select si se tiene cargado tidyverse.

Función rename()

Permite renombrar columnas siguiendo la estructura nuevo_nombre = antiguo_nombre.

# Renombra las variables
data |> rename(frec = n,
               prop = proporcion)

# A tibble: 858,782 × 5
    anio nombre sexo   frec   prop
   <dbl> <chr>  <chr> <dbl>  <dbl>
 1  1920 María  F      2130 0.104 
 2  1920 José   M       984 0.0483
 3  1920 Juan   M       636 0.0312
 4  1920 Luis   M       631 0.0310
 5  1920 Rosa   F       426 0.0209
 6  1920 Ana    F       340 0.0167
 7  1920 Manuel M       326 0.0160
 8  1920 Olga   F       289 0.0142
 9  1920 Carlos M       277 0.0136
10  1920 Pedro  M       269 0.0132
# ℹ 858,772 more rows
…
%in%
Operador de R que indica un conjunto de elementos

&
Operador y. Todas las condiciones evaluadas deben ser verdaderas para que la expresión lo sea

|
Operador o. Al menos una condición debe ser verdadera para que la expresión lo sea

Función filter() (2)

# Filtro por año
data |> filter(anio == 2021) 

# A tibble: 13,265 × 5
    anio nombre   sexo      n proporcion
   <dbl> <chr>    <chr> <dbl>      <dbl>
 1  2021 Mateo    M      3267     0.0184
 2  2021 Emma     F      2352     0.0132
 3  2021 Sofía    F      2251     0.0126
 4  2021 Isabella F      2155     0.0121
 5  2021 Lucas    M      2054     0.0115
 6  2021 Emilia   F      2044     0.0115
 7  2021 Agustín  M      1972     0.0111
 8  2021 Benjamín M      1935     0.0109
 9  2021 Agustina F      1816     0.0102
10  2021 Santiago M      1809     0.0102
# ℹ 13,255 more rows
…
# Filtro por año y nombre
data |> filter(anio == 2021 & nombre == "Susana") 

# A tibble: 1 × 5
   anio nombre sexo      n proporcion
  <dbl> <chr>  <chr> <dbl>      <dbl>
1  2021 Susana F        16  0.0000899

Función filter() (4)

# Filtro usando |
data |> filter(anio == 2021 | anio == 2019) 

# A tibble: 28,306 × 5
    anio nombre   sexo      n proporcion
   <dbl> <chr>    <chr> <dbl>      <dbl>
 1  2019 Mateo    M      4152     0.0196
 2  2019 Isabella F      3101     0.0147
 3  2019 Agustina F      2932     0.0139
 4  2019 Sofía    F      2924     0.0138
 5  2019 Agustín  M      2869     0.0136
 6  2019 Santiago M      2658     0.0126
 7  2019 Emilia   F      2596     0.0123
 8  2019 Tomás    M      2570     0.0122
 9  2019 Benjamín M      2537     0.0120
10  2019 Lucas    M      2468     0.0117
# ℹ 28,296 more rows

Función filter() (5)

# Filtro usando %in%
data |> filter(anio %in% c(1998, 2006, 2007:2010)) 

# A tibble: 71,792 × 5
    anio nombre    sexo      n proporcion
   <dbl> <chr>     <chr> <dbl>      <dbl>
 1  1998 Javiera   F      7473     0.0281
 2  1998 Camila    F      7266     0.0273
 3  1998 Nicolás   M      6090     0.0229
 4  1998 María     F      5665     0.0213
 5  1998 Matías    M      5591     0.0210
 6  1998 Sebastián M      4726     0.0178
 7  1998 Catalina  F      4706     0.0177
 8  1998 Diego     M      4295     0.0161
 9  1998 José      M      4184     0.0157
10  1998 Francisca F      3872     0.0145
# ℹ 71,782 more rows

Función filter() (6)

# Filtro usando negación
data |> filter(anio == 1920 & !(nombre %in% c("María", "José")))

# A tibble: 2,026 × 5
    anio nombre sexo      n proporcion
   <dbl> <chr>  <chr> <dbl>      <dbl>
 1  1920 Juan   M       636     0.0312
 2  1920 Luis   M       631     0.0310
 3  1920 Rosa   F       426     0.0209
 4  1920 Ana    F       340     0.0167
 5  1920 Manuel M       326     0.0160
 6  1920 Olga   F       289     0.0142
 7  1920 Carlos M       277     0.0136
 8  1920 Pedro  M       269     0.0132
 9  1920 Juana  F       239     0.0117
10  1920 Marta  F       218     0.0107
# ℹ 2,016 more rows
…
data |> filter(proporcion >= 0.02 & anio > 2014)

# A tibble: 3 × 5
   anio nombre  sexo      n proporcion
  <dbl> <chr>   <chr> <dbl>      <dbl>
1  2015 Agustín M      5355     0.0218
2  2017 Mateo   M      4736     0.0216
3  2018 Mateo   M      4468     0.0201

Función filter() (8)

# Filtro usando el paquete stringr y condiciones en paréntesis
data |> filter(stringr::str_detect(nombre, "^X") & (anio >= 2018 & anio != 2021))

# A tibble: 88 × 5
    anio nombre  sexo      n proporcion
   <dbl> <chr>   <chr> <dbl>      <dbl>
 1  2018 Xiomara F        41 0.000184  
 2  2018 Ximena  F        27 0.000121  
 3  2018 Xavier  M         8 0.0000359 
 4  2018 Xin     F         8 0.0000359 
 5  2018 Xander  M         3 0.0000135 
 6  2018 Xavi    M         2 0.00000898
 7  2018 Xaviera F         2 0.00000898
 8  2018 Xiang   M         2 0.00000898
 9  2018 Xabi    M         1 0.00000449
10  2018 Xaschey F         1 0.00000449
# ℹ 78 more rows

Función arrange() (1)

Permite ordenar los valores a partir de columnas. Por defecto será de manera ascendente.

data |> arrange(n)

# A tibble: 858,782 × 5
    anio nombre    sexo      n proporcion
   <dbl> <chr>     <chr> <dbl>      <dbl>
 1  1920 Aaron     M         1  0.0000491
 2  1920 Abdolina  F         1  0.0000491
 3  1920 Abdon     M         1  0.0000491
 4  1920 Abigail   F         1  0.0000491
 5  1920 Abrahan   M         1  0.0000491
 6  1920 Abrelena  F         1  0.0000491
 7  1920 Accidalia F         1  0.0000491
 8  1920 Acencio   M         1  0.0000491
 9  1920 Adalia    F         1  0.0000491
10  1920 Adelino   M         1  0.0000491
# ℹ 858,772 more rows

Función arrange() (2)

Con la función desc() se puede ordenar de manera descendente.

# Ordena por año ascendente y por frecuencia descendente
data |> filter(nombre %in% c("Andrea", "Alberto")) |> 
  arrange(anio, desc(n))

# A tibble: 218 × 5
    anio nombre  sexo      n proporcion
   <dbl> <chr>   <chr> <dbl>      <dbl>
 1  1920 Alberto M        53   0.00260 
 2  1920 Andrea  F         8   0.000392
 3  1921 Alberto M       130   0.00282 
 4  1921 Andrea  F        19   0.000412
 5  1922 Alberto M       121   0.00249 
 6  1922 Andrea  F        19   0.000391
 7  1923 Alberto M       168   0.00332 
 8  1923 Andrea  F        14   0.000276
 9  1924 Alberto M       137   0.00247 
10  1924 Andrea  F        25   0.000451
# ℹ 208 more rows
…
data |> slice(20:22) # Selecciona filas desde la 20 a 22

# A tibble: 3 × 5
   anio nombre    sexo      n proporcion
  <dbl> <chr>     <chr> <dbl>      <dbl>
1  1920 Margarita F       146    0.00716
2  1920 Héctor    M       138    0.00677
3  1920 Julio     M       134    0.00657

Función slice() (2)

data |> slice(-(1:800000)) # Selecciona todas menos desde la 1 a 800.000

# A tibble: 58,782 × 5
    anio nombre     sexo      n proporcion
   <dbl> <chr>      <chr> <dbl>      <dbl>
 1  2017 Widekenley M         1 0.00000456
 2  2017 Wideleïca  F         1 0.00000456
 3  2017 Wideleyca  F         1 0.00000456
 4  2017 Widelini   F         1 0.00000456
 5  2017 Widelka    F         1 0.00000456
 6  2017 Widenaëlle F         1 0.00000456
 7  2017 Widialine  F         1 0.00000456
 8  2017 Widjina    F         1 0.00000456
 9  2017 Widjinaïca F         1 0.00000456
10  2017 Widlanne   F         1 0.00000456
# ℹ 58,772 more rows
Función slice() (3)

También cuenta con las funciones slice_head() y slice_tail(). Además del argumento n, incluye el argumento prop para seleccionar una proporción de filas.

data |> slice_head(n = 2) # 2 Filas

# A tibble: 2 × 5
   anio nombre sexo      n proporcion
  <dbl> <chr>  <chr> <dbl>      <dbl>
1  1920 María  F      2130     0.104 
2  1920 José   M       984     0.0483

data |> slice_tail(prop = 0.01) # Partiendo desde las últimas filas, el 1%

# A tibble: 8,587 × 5
    anio nombre    sexo      n proporcion
   <dbl> <chr>     <chr> <dbl>      <dbl>
 1  2021 Amenadil  M         1 0.00000562
 2  2021 Amets     F         1 0.00000562
 3  2021 Ameyalin  F         1 0.00000562
 4  2021 Ameyalli  F         1 0.00000562
 5  2021 Amiel     F         1 0.00000562
 6  2021 Amien     M         1 0.00000562
 7  2021 Amillaray F         1 0.00000562
 8  2021 Amin      M         1 0.00000562
 9  2021 Amina     F         1 0.00000562
10  2021 Amirha    F         1 0.00000562
# ℹ 8,577 more rows

Función slice() (4)

Con slice_sample se puede seleccionar una muestra aleatoria de casos, ya sea indicando con el argumento n o con prop.

data |> slice_sample(n = 1) # Un caso al azar

# A tibble: 1 × 5
   anio nombre sexo      n proporcion
  <dbl> <chr>  <chr> <dbl>      <dbl>
1  1983 Mesly  F         1 0.00000316

data |> slice_sample(prop = 0.01) # Una muestra del 1% al azar

# A tibble: 8,587 × 5
    anio nombre      sexo      n proporcion
   <dbl> <chr>       <chr> <dbl>      <dbl>
 1  2005 Christopher M       141 0.000606  
 2  1992 Bethy       F         1 0.00000338
 3  2000 Alexzander  M         1 0.00000394
 4  1994 Ninorka     F         1 0.00000345
 5  1964 Anselmo     M        67 0.000230  
 6  1992 Otohime     F         1 0.00000338
 7  2012 Jehaam      M         1 0.0000041 
 8  2002 Elyne       F         1 0.00000411
 9  1948 Jaqueline   F         2 0.0000113 
10  1981 Gladys      M         1 0.00000315
# ℹ 8,577 more rows

Función count()

Cuenta las observaciones únicas en una o más variables. Por ejemplo, si quisieramos saber cuántos casos hay por año.

data |> count(anio)

# A tibble: 102 × 2
    anio     n
   <dbl> <int>
 1  1920  2028
 2  1921  3094
 3  1922  3241
 4  1923  3344
 5  1924  3526
 6  1925  3544
 7  1926  3649
 8  1927  3902
 9  1928  4511
10  1929  4531
# ℹ 92 more rows
…
