TSM - Tipos y estructuras de datos en R
…
NULL
Objetos nulos. Es devuelto por expresiones o funciones
NULL

Enteros y numéricos (1)

Representan números enteros, sin parte decimal. Pueden ser usados en operaciones matemáticas y en el contexto de bases de datos, contienen información para las observaciones.

En este caso, seleccionaremos la columna “n” que es de tipo numérica.

datos[, "n"]  # Seleccionamos todos los casos para la columna "n"

# A tibble: 858,782 × 1
       n
   <dbl>
 1  2130
 2   984
 3   636
 4   631
 5   426
 6   340
 7   326
 8   289
 9   277
10   269
# ℹ 858,772 more rows

Enteros y numéricos (2)

Y podríamos ordenar las filas de esa columna de manera descendente y agregarle más columnas para tener información de contexto.

datos[order(datos$n, decreasing = TRUE), c("anio", "nombre", "n")]

# A tibble: 858,782 × 3
    anio nombre     n
   <dbl> <chr>  <dbl>
 1  1955 María  21448
 2  1956 María  21013
 3  1965 María  20382
 4  1954 María  20172
 5  1957 María  20154
 6  1962 María  19862
 7  1959 María  19701
 8  1958 María  19593
 9  1960 María  19581
10  1953 María  19566
# ℹ 858,772 more rows
…
